\relax 
\@writefile{toc}{\contentsline {section}{\numberline {1}Implementing the service}{1}}
\@writefile{toc}{\contentsline {subsection}{\numberline {1.1}Create DaemonService class}{1}}
\@writefile{toc}{\contentsline {subsection}{\numberline {1.2}Register OnQueueEventListeners}{1}}
\@writefile{toc}{\contentsline {subsection}{\numberline {1.3}Start service}{2}}
\@writefile{toc}{\contentsline {subsection}{\numberline {1.4}Run ActionThread}{2}}
\@writefile{toc}{\contentsline {subsection}{\numberline {1.5}Perform action}{2}}
\@writefile{toc}{\contentsline {subsection}{\numberline {1.6}IPC}{2}}
\@writefile{toc}{\contentsline {section}{\numberline {2}Autostarting the service}{3}}
